{
  "entity:node\/1015:en": {
    "_id": "entity:node\/1015:en",
    "rendered_item": "Aliquam os Vulpes",
    "url": "\/node\/1015",
    "title": "sim cards"
  },
  "entity:node\/1016:en": {
    "_id": "entity:node\/1016:en",
    "rendered_item": "Genitus Vulpes Blandit esse quidne.",
    "url": "\/node\/1016",
    "title": "Genitus Vulpes"
  }
}
